1)
976738.625 optimal proved
7 11 0 4 7 0 1 5 7 7 3 4 8 0 6 7 11 8 3 6 3 6 10 0 11 0 12 4 10 0 0 4 0 2 11 11 5 10 7 4 10 3 7 6 7 7 7 6 4 11
2)
796648.4375 optimal proved
7 6 0 24 7 0 1 5 7 7 3 10 5 0 6 7 3 8 3 6 3 6 10 0 19 10 12 10 19 0 0 10 0 16 19 19 17 5 23 24 19 3 7 6 22 23 23 6 24 19
3)
793439.5625 optimal proved
15 14 5 48 15 5 6 12 15 15 10 22 12 5 14 15 10 17 10 14 10 14 22 5 40 22 26 22 40 5 5 22 5 33 40 40 36 12 45 48 40 10 15 14 44 45 45 14 48 40
4)
17765201.949 optimal proved
[58, 78, 58, 33, 78, 35, 33, 33, 35, 33, 78, 64, 58, 78, 78, 33, 35, 33, 78, 78, 64, 78, 33, 58, 78, 78, 33, 58, 35, 33, 33, 78, 78, 78, 58, 58, 58, 33, 58, 33, 58, 64, 58, 33, 33, 64, 35, 58, 58, 35, 78, 58, 35, 35, 64, 78, 58, 64, 78, 58, 64, 35, 64, 35, 33, 58, 35, 58, 64, 78, 78, 35, 33, 58, 58, 64, 78, 35, 35, 78, 35, 64, 35, 78, 64, 33, 33, 33, 64, 35, 64, 35, 64, 78, 78, 58, 33, 33, 78, 64, 58, 58, 78, 78, 35, 33, 58, 78, 78, 78, 58, 35, 33, 33, 33, 64, 33, 33, 58, 58, 78, 35, 35, 35, 58, 78, 33, 58, 64, 33, 64, 33, 78, 78, 35, 35, 35, 58, 58, 58, 58, 33, 35, 33, 78, 33, 78, 35, 78, 64, 78, 33, 33, 35, 35, 78, 35, 78, 64, 33, 33, 35, 35, 58, 33, 58, 35, 58, 64, 35, 64, 58, 33, 78, 35, 35, 33, 33, 35, 64, 58, 35, 64, 33, 35, 78, 35, 33, 35, 33, 35, 58, 78, 78, 64, 35, 33, 35, 33, 58, 35, 58, 64, 64, 33, 33, 78, 58, 33, 35, 78, 78, 35, 58, 78, 78, 64, 78, 78, 78, 33, 33, 33, 58, 35, 35, 35, 78, 78, 33, 58, 78, 78, 33, 64, 58, 33, 33, 33, 64, 33, 35, 33, 35, 58, 33, 35, 58, 64, 33, 33, 33, 35, 64, 64, 58, 64, 64, 33, 64, 78, 58, 58, 33, 78, 35, 58, 58, 78, 33, 33, 58, 58, 64, 33, 35, 33, 58, 58, 35, 78, 58, 78, 78, 35, 33, 64, 35, 33, 78, 58, 64, 33, 64, 35, 58, 58, 78, 33, 33, 35, 33, 35, 78, 33, 35, 78, 33, 35, 58, 35, 78, 35, 35, 33, 35, 35, 64, 33, 64, 64, 58, 33, 64, 58, 35, 78, 64, 64, 64, 58, 58, 35, 33, 58, 35, 35, 58, 78, 78, 64, 58, 35, 33, 58, 58, 64, 78, 64, 35, 78, 33, 33, 64, 35, 33, 58, 58, 64, 78, 58, 64, 33, 78, 64, 33, 33, 78, 33, 64, 33, 78, 58, 33, 58, 58, 33, 64, 78, 78, 35, 35, 33, 78, 58, 64, 33, 78, 35, 33, 35, 33, 78, 58, 64, 58, 33, 35, 33, 35, 58, 78, 33, 35, 64, 64, 58, 64, 35, 78, 58, 64, 58, 78, 64, 64, 58, 58, 35, 58, 64, 78, 35, 33, 64, 64, 58, 78, 64, 33, 33, 33, 78, 33, 58, 64, 64, 35, 33, 64, 78, 35, 58, 64, 64, 64, 35, 58, 33, 33, 58, 64, 33, 58, 33, 64, 35, 78, 64, 64, 64, 64, 33, 35, 33, 78, 58, 35, 35, 58, 64, 33, 35, 33, 58, 78, 58, 64, 64, 78, 58, 33, 64, 58, 58, 78, 78, 33, 35, 78, 64, 78, 35, 58, 78, 64, 33, 33, 64, 33, 35, 33, 33, 33, 64, 58, 33, 64, 35, 58, 35, 33, 78, 33, 35, 33, 64, 58, 35, 64, 58, 33, 78, 64, 33, 78, 64, 64, 33, 58, 78, 58, 58, 33, 35, 35, 35, 58, 35, 64, 64, 58, 35, 58, 78, 64, 33, 33, 58, 35, 58, 78, 78, 64, 58, 78, 33, 33, 33, 33, 33, 33, 35, 58, 58, 64, 64, 78, 33, 58, 78, 58, 58, 78, 64, 58, 58, 33, 78, 35, 33, 64, 35, 78, 33, 64, 35, 35, 35, 33, 64, 64, 33, 64, 33, 58, 35, 64, 35, 35, 58, 33, 35, 33, 33, 33, 58, 58, 35, 35, 78, 33, 35, 58, 33, 33, 78, 58, 58, 35, 64, 35, 35, 78, 78, 64, 78, 33, 35, 78, 33, 78, 58, 58, 35, 58, 33, 33, 33, 33, 35, 78, 78, 78, 33, 78, 35, 58, 78, 64, 78, 78, 78, 78, 78, 35, 58, 35, 58, 33, 58, 33, 78, 33, 58, 58, 35, 64, 78, 78, 64, 58, 64, 33, 58, 58, 58, 78, 64, 35, 35, 58, 58, 33, 58, 64, 78, 33, 33, 78, 35, 58, 58, 58, 78, 33, 33, 35, 35, 78, 35, 78, 35, 35, 58, 35, 35, 78, 33, 78, 58, 64, 33, 35, 58, 78, 78, 33, 64, 35, 78, 78, 58, 58, 33, 35, 64, 33, 35, 58, 33, 78, 33, 64, 78, 35, 33, 58, 35, 64, 35, 64, 33, 33, 33, 78, 58, 64, 78, 35, 58, 64, 33, 35, 58, 64, 33, 58, 35, 35, 33, 35, 64, 58, 33, 78, 78, 33, 58, 58, 35, 58, 78, 78, 33, 33, 33, 33, 35, 33, 64, 58, 58, 64, 64, 58, 58, 78, 78, 78, 35, 64, 78, 33, 35, 35, 33, 58, 58, 58, 33, 35, 35, 33, 58, 78, 78, 58, 33, 35, 58, 78, 64, 64, 78, 58, 33, 58, 78, 78, 33, 64, 33, 78, 33, 35, 35, 78, 78, 78, 64, 33, 64, 58, 33, 58, 78, 35, 58, 64, 58, 33, 58, 64, 58, 58, 58, 33, 58, 78, 64, 33, 78, 33, 35, 35, 35, 78, 58, 78, 78, 33, 78, 78, 78, 78, 64, 58, 58, 33, 33, 35, 58, 78, 33, 78, 78, 64, 58, 78, 64, 64, 58, 78, 64, 58, 58, 78, 35, 58, 35, 58, 58, 35, 35, 35, 33, 64, 35, 58, 64, 33, 58, 33, 33, 58, 33, 33, 33, 58, 33, 33, 35, 78, 58, 33, 35, 33, 33, 33, 33, 78, 58, 78, 58, 64, 35, 64, 78, 33, 78, 35, 58, 58, 35, 33, 33, 64, 35, 35, 78, 58, 33, 78, 58, 35, 64, 58, 35, 33, 35, 35, 64, 33, 78, 58, 33, 78, 35, 78, 35, 35, 35, 78, 33, 64, 78, 58, 64, 58, 78, 33, 33, 33, 64, 78, 58, 58, 78, 58, 33, 78, 58, 64, 35, 33, 64, 78, 78, 58, 33, 58, 35, 78, 64, 35, 78, 78, 78, 78]
5)
2686.47946 1 optimal proved
29 29 113 145 113 29 117 131 117 29 131 29 113 113 131 117 131 131 131 29 117 145 29 117 117 117 29 29 29 131 29 113 131 131 131 131 145 117 145 117 117 113 117 145 131 29 117 29 145 29 131 117 117 131 145 113 145 117 131 117 29 117 29 145 117 113 29 29 145 29 113 145 145 145 113 145 29 117 145 145 131 131 145 131 131 29 29 29 117 113 29 131 29 29 145 113 117 113 29 117 131 145 145 117 131 29 29 117 131 131 145 113 117 29 131 145 29 131 131 113 117 29 145 145 131 29 131 29 117 131 145 117 131 117 117 113 145 113 145 131 131 131 113 29 29 29 117 145 131 113 145 117 131 131 117 145 29 117 113 29 113 113 117 29 145 145 131 29 113 113 117 113 145 117 145 113 145 113 145 117 131 131 113 113 145 117 117 29 113 29 29 131 117 29 29 29 131 113 131 117
6)
2608.14839 optimal proved
[462, 109, 115, 264, 484, 484, 466, 109, 466, 115, 462, 466, 466, 109, 264, 462, 466, 462, 109, 462, 115, 466, 484, 484, 466, 466, 115, 115, 264, 484, 462, 484, 264, 462, 115, 109, 264, 109, 462, 466, 466, 466, 264, 462, 115, 109, 115, 109, 109, 109, 109, 466, 466, 466, 115, 264, 484, 109, 462, 115, 264, 115, 462, 462, 109, 466, 462, 115, 462, 109, 466, 484, 466, 466, 109, 115, 466, 115, 109, 462, 115, 462, 264, 264, 466, 466, 462, 466, 109, 115, 466, 115, 115, 109, 115, 484, 484, 115, 462, 484, 484, 484, 462, 115, 109, 466, 484, 264, 264, 466, 115, 484, 466, 264, 484, 109, 264, 109, 462, 484, 264, 109, 462, 484, 466, 466, 264, 115, 264, 115, 115, 484, 115, 109, 115, 462, 484, 484, 109, 466, 484, 115, 462, 264, 462, 466, 462, 264, 466, 109, 484, 466, 264, 115, 264, 466, 484, 462, 264, 264, 109, 466, 264, 115, 109, 466, 466, 264, 466, 109, 115, 466, 115, 466, 466, 264, 109, 115, 109, 466, 462, 115, 462, 466, 264, 264, 462, 466, 466, 115, 466, 466, 484, 466, 115, 462, 115, 109, 466, 466, 462, 115, 466, 115, 466, 462, 109, 115, 484, 109, 484, 264, 264, 462, 462, 109, 462, 484, 115, 466, 264, 115, 115, 264, 264, 264, 115, 264, 462, 264, 484, 466, 466, 466, 115, 462, 109, 462, 466, 462, 484, 109, 462, 462, 109, 484, 264, 484, 484, 484, 466, 115, 109, 484, 264, 484, 115, 484, 466, 264, 484, 115, 115, 462, 462, 484, 462, 462, 264, 109, 484, 484, 115, 484, 462, 466, 264, 115, 115, 466, 115, 484, 466, 466, 466, 462, 115, 466, 264, 462, 466, 484, 264, 462, 466, 115, 115, 264, 115, 115, 115, 462, 109, 466, 484, 264, 466, 462, 264, 109, 264, 264, 462, 462, 466, 466, 115, 484, 466, 462, 484, 109, 264, 484, 462, 462, 466, 462, 109, 264, 109, 264, 484, 466, 115, 484, 264, 466, 264, 462, 264, 264, 484, 115, 466, 115, 109, 115, 484, 484, 462, 264, 462, 109, 109, 484, 115, 462, 466, 484, 109, 484, 484, 264, 466, 466, 466, 109, 115, 462, 264, 462, 115, 484, 264, 115, 109, 115, 115, 484, 264, 115, 109, 115, 462, 462, 462, 264, 484, 115, 264, 109, 109, 115, 466, 462, 109, 115, 115, 466, 466, 484, 264, 115, 466, 109, 109, 115, 115, 466, 462, 109, 109, 264, 264, 115, 264, 264, 264, 264, 462, 264, 109, 115, 462, 115, 462, 466, 264, 484, 109, 466, 264, 462, 466, 264, 484, 115, 466, 264, 462, 484, 115, 115, 466, 115, 484, 466, 264, 484, 462, 264, 484, 109, 264, 462, 462, 462, 462, 109, 484, 484, 462, 109, 462, 466, 109, 466, 109, 115, 109, 484, 466, 115, 264, 109, 115, 115, 484, 109, 466, 484, 115, 115, 109, 115, 115, 115, 466, 264, 115, 462, 462, 264, 462, 462, 264, 109, 484, 462]
7)
8)
10069.80281 optimal not proved
[1925, 913, 718, 913, 718, 913, 1925, 913, 1149, 913, 718, 913, 1284, 1149, 1925, 1925, 1925, 1284, 913, 1284, 913, 1149, 1149, 718, 1230, 913, 1230, 913, 718, 1149, 913, 718, 1925, 1284, 1284, 718, 1230, 1230, 1925, 1230, 1149, 1284, 1284, 913, 1149, 1149, 1230, 913, 1284, 1925, 718, 1925, 913, 1230, 1284, 913, 718, 718, 1284, 1149, 1925, 718, 718, 913, 1230, 1284, 1925, 913, 913, 1149, 913, 1149, 1925, 1230, 1925, 1925, 718, 913, 913, 718, 1284, 913, 1925, 1149, 913, 913, 1149, 1925, 1149, 1284, 1284, 1230, 1230, 1284, 1149, 1284, 1149, 1284, 1925, 718, 718, 913, 718, 718, 913, 913, 718, 718, 1230, 1230, 1149, 1284, 1230, 1925, 718, 1149, 913, 1284, 1149, 1284, 1925, 1925, 1149, 913, 913, 1925, 1925, 913, 718, 1149, 913, 913, 1925, 1284, 1149, 1230, 1230, 1149, 718, 718, 718, 1925, 1284, 718, 718, 1230, 1230, 1925, 1925, 1230, 1284, 1230, 913, 1925, 718, 1149, 718, 1149, 1230, 718, 1149, 1149, 1149, 1284, 1925, 718, 718, 1925, 1925, 1284, 1230, 1925, 913, 718, 1925, 1230, 1230, 1925, 1925, 913, 1925, 718, 1925, 913, 1149, 1230, 1925, 1284, 1230, 718, 1149, 1284, 1149, 1284, 1230, 913, 1149, 913, 913, 1925, 1230, 1149, 913, 1925, 913, 1230, 913, 1284, 1230, 718, 1925, 1284, 1230, 1284, 1149, 1149, 1230, 1230, 718, 718, 913, 1230, 913, 1149, 1230, 913, 913, 1149, 1230, 1149, 913, 913, 1149, 913, 718, 1230, 1925, 913, 913, 1284, 1284, 913, 1149, 1230, 1149, 718, 1284, 718, 1149, 1284, 913, 718, 1284, 913, 1149, 718, 718, 1149, 1284, 718, 1284, 1284, 1149, 1925, 1284, 913, 1149, 718, 1925, 718, 913, 913, 1925, 718, 913, 1230, 1925, 718, 1925, 718, 1284, 1230, 913, 1230, 913, 1925, 913, 1230, 718, 1284, 718, 1149, 1925, 1284, 1284, 1230, 913, 1284, 718, 718, 1925, 718, 1149, 1230, 1230, 1284, 1925, 1925, 913, 1925, 1284, 913, 1230, 1230, 718, 1230, 913, 1284, 718, 1284, 1149, 913, 718, 718, 1284, 1149, 1230, 1925, 913, 1925, 1925, 1230, 913, 718, 913, 1925, 718, 718, 1925, 1925, 913, 1230, 913, 1230, 1230, 1149, 718, 1149, 1149, 1284, 913, 1925, 913, 1284, 1230, 1284, 1284, 1230, 1284, 1149, 1284, 718, 1925, 1284, 1149, 1230, 1925, 1284, 913, 718, 913, 1149, 913, 1230, 718, 1149, 1284, 718, 1925, 718, 1230, 718, 1284, 1925, 718, 1925, 718, 1149, 718, 718, 1925, 1925, 1230, 1149, 718, 718, 1925, 1230, 1230, 1925, 1230, 1284, 913, 1284, 1284, 1284, 1149, 718, 913, 913, 718, 913, 718, 1230, 1149, 1149, 1284, 1925, 1149, 1284, 718, 1284, 1284, 1149, 718, 1230, 913, 913, 1149, 913, 1284, 1149, 1149, 913, 913, 1230, 913, 718, 1284, 1925, 718, 1925, 913, 1230, 718, 1149, 718, 1149, 718, 718, 1230, 1925, 1230, 718, 1284, 1284, 913, 1149, 1230, 1230, 1149, 718, 1925, 913, 718, 1149, 718, 1149, 913, 1149, 1284, 1284, 1925, 1149, 1149, 1149, 1284, 1925, 718, 1230, 1925, 1149, 718, 913, 1284, 1284, 1230, 1230, 1925, 1230, 718, 1925, 1925, 718, 718, 1230, 1284, 1149, 1149, 1230, 1230, 1284, 1230, 718, 1230, 1230, 1925, 913, 718, 1230, 1925, 1925, 1149, 1230, 1230, 1230, 913, 1230, 1925, 718, 1284, 913, 1925, 913, 1284, 1149, 1149, 1284, 1230, 1230, 718, 1149, 1149, 1284, 1149, 1284, 1149, 718, 913, 913, 1149, 1284, 718, 718, 1925, 1149, 1230, 1230, 1149, 718, 1284, 1149, 913, 718, 718, 1149, 913, 1230, 1284, 1925, 1925, 718, 718, 913, 718, 913, 1230, 913, 718, 718, 1925, 1230, 1230, 1149, 718, 1925, 1149, 913, 1230, 913, 1925, 1149, 718, 913, 1230, 718, 1925, 1925, 1149, 1149, 718, 1230, 913, 1284, 913, 913, 1149, 1284, 913, 1230, 1284, 718, 718, 1149, 1284, 1925, 1149, 1925, 718, 1284, 1149, 718, 1925, 1230, 1284, 913, 718, 1925, 913, 1925, 1925, 1925, 1230, 913, 718, 913, 1284, 1149, 1230, 1284, 1284, 718, 1230, 1230, 1149, 1284, 1925, 1284, 1149, 1925, 718, 1925, 1149, 1149, 1284, 1925, 1230, 1230, 718, 1925, 1230, 1230, 718, 913, 1230, 1149, 1149, 1284, 1230, 1925, 718, 913, 1925, 1925, 1230, 1230, 1925, 913, 1284, 1925, 718, 1284, 1149, 718, 1284, 1925, 913, 1284, 718, 1149, 1149, 718, 913, 1149, 1284, 718, 718, 1149, 1149, 1149, 1925, 1149, 1149, 1230, 1925, 1230, 718, 1925, 1149, 718, 1284, 718, 1925, 1925, 1230, 1149, 1230, 1284, 1230, 1284, 718, 1925, 1149, 1284, 1149, 1149, 1230, 1925, 718, 1284, 1149, 1284, 1230, 913, 1284, 1925, 1230, 718, 1925, 1230, 913, 1925, 1230, 1149, 1284, 913, 1284, 1149, 1284, 1284, 1284, 1925, 1149, 1149, 718, 913, 718, 1149, 1149, 718, 718, 913, 718, 1230, 1230, 718, 1925, 1230, 1284, 1925, 913, 1149, 913, 718, 718, 1149, 718, 1230, 718, 1284, 1925, 913, 913, 913, 1925, 1284, 913, 1149, 1925, 1925, 1230, 718, 1230, 718, 1230, 913, 718, 1149, 1149, 1284, 1149, 913, 1284, 1149, 1149, 1925, 1149, 913, 913, 1149, 1284, 718, 1925, 1149, 913, 1230, 1925, 1925, 1925, 1149, 718, 1149, 718, 718, 1230, 718, 913, 1230, 913, 718, 1284, 1230, 1925, 1925, 718, 1284, 1230, 718, 718, 913, 1925, 718, 1230, 1149, 1149, 913, 913, 1149, 1230, 1230, 1925, 1230, 1230, 1284, 1925, 913, 1230, 1284, 1925, 913, 913, 1925, 913, 1925, 913, 1284, 913, 1284, 1925, 1149, 913, 718, 1284, 1230, 1230, 1149, 1230, 1230, 718, 913, 913, 718, 913, 1149, 1230, 1230, 1284, 1925, 1149, 718, 913, 1230, 1925, 1230, 718, 1925, 1149, 913, 1925, 1149, 1284, 913, 1149, 1149, 1925, 913, 913, 913, 1230, 1230, 1284, 913, 1149, 1284, 1925, 1284, 913, 1230, 913, 1284, 1230, 913, 1925, 913, 1284, 1149, 718, 1925, 1925, 913, 1284, 1149, 1925, 913, 913, 718, 1284, 1925, 1230, 1284, 1230, 1284, 718, 718, 718, 1230, 1284, 1925, 718, 1284, 1925, 1284, 1149, 913, 1230, 913, 1230, 1230, 913, 1925, 1925, 1925, 1230, 913, 718, 1925, 1149, 913, 1925, 1149, 1230, 718, 1284, 1149, 913, 1925, 913, 718, 1230, 718, 1149, 718, 1925, 913, 1925, 1284, 718, 1284, 1149, 718, 1230, 1230, 913, 1284, 718, 1925, 913, 1925, 1149, 913, 1230, 1284, 1230, 1284, 1230, 1149, 913, 1284, 1230, 1149, 1284, 913, 913, 1149, 1284, 718, 1925, 1149, 1284, 1925, 1149, 718, 1284, 1149, 718, 718, 913, 1284, 1149, 1925, 1284, 1149, 1230, 1925, 1230, 1925, 1230, 1149, 1925, 1284, 1925, 1149, 718, 1230, 718, 718, 1149, 913, 913, 1925, 1149, 1149, 1149, 718, 718, 1149, 718, 1230, 1925, 1149, 718, 1925, 1230, 1230, 1149, 913, 1149, 1925, 1230, 1284, 718, 913, 1149, 1230, 1149, 1284, 1230, 1925, 1925, 1230, 1284, 1284, 718, 1284, 1149, 1230, 1284, 913, 718, 718, 1230, 1925, 913, 1284, 913, 913, 1925, 1149, 913, 1149, 1925, 718, 1284, 1925, 913, 718, 1284, 1284, 1284, 1925, 1284, 1230, 718, 718, 718, 1925, 1149, 1284, 1230, 1925, 1230, 1284, 913, 913, 1925, 1230, 1149, 1925, 1925, 913, 718, 913, 1149, 913, 718, 1230, 718, 1284, 718, 718, 1230, 1149, 1230, 1284, 718, 1925, 1284, 1149, 913, 718, 718, 1149, 1925, 1925, 1149, 718, 1284, 913, 1284, 913, 718, 913, 1149, 1149, 1149, 1230, 718, 1284, 1149, 1230, 718, 913, 1284, 1284, 1925, 1149, 1925, 1149, 913, 913, 718, 913, 1284, 1284, 1284, 718, 1149, 718, 1925, 718, 913, 1284, 1149, 1925, 1284, 1284, 1230, 1149, 1284, 1284, 718, 1230, 913, 1925, 1284, 1230, 1284, 1925, 718, 1149, 913, 718, 1284, 1284, 1284, 718, 1284, 718, 1230, 1230, 1925, 1149, 1284, 1284, 1284, 913, 913, 1149, 1284, 1925, 1284, 913, 1230, 1149, 1925, 1284, 1230, 718, 1230, 1925, 1230, 1149, 1230, 913, 1284, 1149, 1925, 1149, 1284, 1230, 1149, 913, 1284, 1925, 1149, 1230, 1925, 913, 1284, 1284, 1149, 1149, 1230, 1284, 1925, 1149, 1925, 1284, 1230, 1149, 1230, 913, 718, 718, 913, 1149, 1925, 1284, 1284, 1925, 1230, 718, 1230, 1149, 1149, 1925, 1230, 1149, 1284, 1149, 718, 1230, 1149, 1149, 1284, 1230, 1149, 718, 1149, 913, 1284, 1284, 718, 718, 913, 718, 1230, 1149, 1230, 1230, 1925, 1284, 1284, 1149, 1230, 1230, 1230, 718, 1925, 913, 1149, 913, 1284, 1284, 913, 718, 1284, 1284, 913, 1284, 1230, 1925, 1284, 1149, 1230, 1230, 1149, 913, 1230, 913, 913, 1925, 1149, 1230, 718, 1149, 1149, 718, 1230, 1925, 718, 1149, 1230, 1230, 718, 718, 718, 1149, 1149, 913, 1925, 1925, 1925, 1230, 913, 1284, 1925, 1925, 1284, 718, 1284, 1284, 718, 1230, 1925, 1149, 1284, 1284, 913, 1149, 913, 718, 913, 1230, 1284, 718, 913, 718, 1925, 1149, 1230, 1149, 913, 1149, 913, 1284, 1230, 1925, 913, 1925, 1925, 913, 1284, 1925, 718, 1149, 913, 1149, 913, 718, 1925, 1284, 913, 913, 913, 1284, 1230, 1925, 718, 913, 913, 1149, 718, 913, 1925, 1149, 913, 1284, 718, 718, 1284, 1925, 1149, 913, 1925, 913, 1149, 718, 1284, 1230, 718, 718, 1925, 1149, 913, 1149, 1925, 1284, 1925, 718, 913, 1230, 718, 1149, 718, 1284, 1230, 913, 913, 1284, 1925, 913, 1925, 1284, 1925, 1149, 1230, 1925, 1925, 1284, 1284, 718, 1284, 718, 1230, 1925, 913, 913, 913, 1149, 1284, 1149, 718, 1284, 1284, 1284, 718, 718, 913, 913, 718, 913, 1284, 1925, 1284, 718, 1149, 718, 1149, 718, 1149, 1284, 1284, 913, 1925, 1149, 1230, 1925, 1149, 1284, 1230, 913, 1925, 718, 913, 913, 1230, 913, 718, 1149, 913, 718, 718, 913, 718, 1230, 1925, 1925, 1230, 1925, 718, 1230, 1149, 1149, 1149, 1284, 1230, 1230, 1925, 718, 1284, 1284, 913, 1230, 1149, 1149, 1925, 1284, 1149, 1925, 1230, 1230, 1925, 1284, 718, 718, 1284, 1149, 1230, 1230, 1149, 1284, 1149, 718, 1925, 1230, 1925, 718, 913, 913, 1230, 718, 1284, 718, 1284, 718, 913, 913, 1925, 1925, 913, 718, 1149, 913, 1284, 913, 1230, 1284, 1925, 1230, 913, 1149, 1230, 1230, 1149, 718, 718, 913, 1149, 718, 1230, 718, 718, 913, 913, 1284, 913, 1149, 1284, 913, 718, 718, 913, 718, 1284, 1230, 913, 1149, 913, 1149, 718, 718, 1284, 1230, 1230, 1925, 1284, 1284, 1149, 1149, 1230, 718, 1149, 1284, 1284, 913, 913, 1925, 1284, 913, 718, 1230, 1230, 718, 718, 1230, 1230, 718, 718, 1925, 1284, 1284, 1149, 1925, 1284, 1925, 1284, 1149, 1925, 1149, 1149, 913, 1230, 913, 1149, 1149, 1230, 718, 1230, 1284, 913, 1230, 913, 1149, 1925, 1230, 1230, 913, 913, 1284, 913, 718, 1230, 1230, 1925, 1284, 1284, 1925, 1149, 1230, 913, 913, 1149, 1284, 718, 1149, 1230, 913, 1284, 1925, 1149, 913, 913, 1230, 1230, 1230, 1149, 913, 1284, 1925, 718, 1925, 1230, 1925, 1149, 1925, 1230, 1149, 718, 913, 1149, 1925, 1925, 1230, 718, 718, 718, 1230, 1284, 1925, 1284, 718, 1230, 718, 913, 718, 1925, 1284, 1230, 1230, 1284, 718, 1230, 1925, 1230, 1925, 1230, 1230, 913, 1230, 718, 1925, 1149, 1925, 1925, 1925, 718, 1925, 1149, 1230, 1284, 1284, 1149, 1149, 913, 1230, 1925, 1925, 1149, 718, 1284, 1284, 1925, 913, 1230, 1230, 1149, 1925, 1284, 1149, 1149, 718, 1284, 913, 718, 1925, 913, 718, 1149, 913, 1149, 1925, 1925, 1284, 718, 1925, 1284, 1925, 718, 718, 1230, 718, 913, 1925, 913, 1149, 1284, 1149, 1284, 913, 1284, 718, 718, 913, 1149, 913, 1925, 1925, 1925, 1925, 718, 1284, 1230, 1925, 913, 913, 1230, 718, 913, 1284, 1230, 1925, 1284, 1149, 1925, 913, 718, 1284, 718, 1230, 1149, 1925, 1230, 1284, 1149, 913, 1925, 1230, 1230, 913, 913, 913, 1149, 1149, 913, 1925, 913, 1284, 1284, 718, 1284, 913, 1230, 718, 913, 1230, 1284, 1284, 1925, 718, 1230, 913, 718, 1230, 913, 913, 1284, 1925, 1230, 1925, 1149, 1149, 913, 718, 1925, 1925, 913, 1284, 1925, 1230, 1149, 1925, 1149, 718, 718, 1230, 1230, 1230, 913, 1925, 1925, 1149, 913, 913, 718, 1925, 913, 1925, 1925, 1230, 1925, 1149, 718, 1230, 1925, 718, 718, 1230, 1925, 913, 1925, 1925, 1284, 1149, 913, 718, 1149, 718, 913, 1149, 913, 718, 1284, 1149, 913, 718, 1230, 1925, 1230, 1149, 1925, 1149, 1925, 1925, 1230, 1230, 1149, 1149, 913, 913, 1284, 718, 1925, 1230, 1284, 1925, 1230, 1284, 1284, 1149, 1925, 1230, 718, 1230, 1230, 1925, 1284, 1149, 1149, 1925, 1149, 1230, 1925, 718, 1284, 1925, 1230, 1149, 1149, 718, 1230, 913, 1230, 1230, 1230, 913, 1925, 913, 1925, 1284, 913, 913, 718, 718, 1284, 718, 1925, 1230, 1149, 718, 1149, 1230, 1284, 1149, 1149, 1230, 1230, 1149, 1284, 1925]
